{
  "backendUrl": "http://localhost/civitours/src/backend/api/v1/",
  "googleReCaptcha": {
    "publicKey": "6Ldc9lUUAAAAABJYPKnnwoAj4WHv1U2PO12Es7hd"
  },
  "socialLogin": {
    "facebook": "1626669250713987",
    "google": "785247191567-vrngdd82na04r0sap0vcfqj94jj1jjoa.apps.googleusercontent.com"
  },
  "maps": {
    "google": "AIzaSyAelz6FHgVcqJJfOgMgZDjxnCRZOsTVZFM"
  },
  "stripe": {
    "publicKey": "pk_live_RoPWXdnnKEKQ1fG0VGwPOQ6H"
  }
}