<svg width="14" height="16" viewBox="0 0 14 16" version="1.1" xmlns="http://www.w3.org/2000/svg" xmlns:xlink="http://www.w3.org/1999/xlink">
<g id="Canvas" fill="none">
<g id="user (3)" opacity="0.3">
<g id="Vector">
<path d="M 12 4.66667L 12 3.11111C 12 2.28599 11.6839 1.49467 11.1213 0.911224C 10.5587 0.327777 9.79565 0 9 0L 3 0C 2.20435 0 1.44129 0.327777 0.87868 0.911224C 0.31607 1.49467 0 2.28599 0 3.11111L 0 4.66667" stroke-width="2" stroke-linecap="round" stroke-linejoin="round" transform="translate(1 10.3333)" stroke="black"/>
</g>
<g id="Vector_2">
<path d="M 6 3.11111C 6 4.82933 4.65685 6.22222 3 6.22222C 1.34315 6.22222 0 4.82933 0 3.11111C 0 1.39289 1.34315 0 3 0C 4.65685 0 6 1.39289 6 3.11111Z" stroke-width="2" stroke-linecap="round" stroke-linejoin="round" transform="translate(4 1)" stroke="black"/>
</g>
</g>
</g>
</svg>

