<svg width="18" height="18" viewBox="0 0 18 18" version="1.1" xmlns="http://www.w3.org/2000/svg" xmlns:xlink="http://www.w3.org/1999/xlink">
<g id="Canvas" fill="none">
<g id="Group 24">
<g id="clock (2)" opacity="0.3">
<g id="Vector">
<path d="M 16 8C 16 12.4183 12.4183 16 8 16C 3.58172 16 0 12.4183 0 8C 0 3.58172 3.58172 0 8 0C 12.4183 0 16 3.58172 16 8Z" stroke-width="2" stroke-linecap="round" stroke-linejoin="round" transform="translate(1 1)" stroke="black"/>
</g>
<g id="Vector_2">
<path d="M 0 0L 0 4.8L 3.2 6.4" stroke-width="2" stroke-linecap="round" stroke-linejoin="round" transform="translate(9 4.20001)" stroke="black"/>
</g>
</g>
</g>
</g>
</svg>

